AFSC Case Study Gulf of Alaska Walleye Pollock – NOAA FIMS case studies
…
[1] 9

Code

FIMS::get_data(data_4_model) |>
  dplyr::filter(name == "fleet1", type == "age_comp") |>
  print(n = 10)

# A tibble: 540 × 7
   type     name     age timing value unit  uncertainty
   <chr>    <chr>  <dbl>  <dbl> <dbl> <chr>       <dbl>
 1 age_comp fleet1     1   1970  -999 ""              1
 2 age_comp fleet1     2   1970  -999 ""              1
 3 age_comp fleet1     3   1970  -999 ""              1
 4 age_comp fleet1     4   1970  -999 ""              1
 5 age_comp fleet1     5   1970  -999 ""              1
 6 age_comp fleet1     6   1970  -999 ""              1
 7 age_comp fleet1     7   1970  -999 ""              1
 8 age_comp fleet1     8   1970  -999 ""              1
 9 age_comp fleet1     9   1970  -999 ""              1
10 age_comp fleet1    10   1970  -999 ""              1
# ℹ 530 more rows
…
